Employee Punch Monitor,,,,,,,,,,
,,,,,,,,,,
Company:,,Default,,,,,,Printed On : Dec 09 2015 09:20,,
,,,,,,,,,,
,,,,,,,,,,
Date,,,09-Dec-2015,,,,,,,
Department,,,Default,,,,,,,
SNo.,Emp Code ,,Name,Last Punch,,Direction,Punch Records,,Status,
1,1,,Jilesh Vishrolia,,,,,,Not Present,
2,2,,Gayatri Moras,06:45,,,"06:45,",,Present,
3,3,,Sujata Singh,07:01,,,"07:01,",,Present,
4,4,,Raja Mishra,,,,,,Not Present,
5,5,,Anurag Singh,06:59,,,"06:59,",,Present,
6,6,,Anita Sharma,06:45,,,"06:45,",,Present,
7,11,,Asha Trivedi,06:44,,,"06:44,",,Present,
8,12,,Vandana Abhichandani,07:01,,,"07:01,",,Present,
9,13,,Piyush Malani,06:46,,,"06:46,",,Present,
10,14,,Anshu Singh,06:53,,,"06:53,",,Present,
11,15,,Dimple Dabhi,07:01,,,"07:01,",,Present,
12,16,,Kusum Parmar,06:43,,,"06:43,",,Present,
13,17,,Seema Joshi,06:51,,,"06:51,",,Present,
14,19,,Nilesh Gohel,07:04,,,"07:04,",,Present,
15,20,,Brenda Gonsalves,07:01,,,"07:01,",,Present,
16,22,,Divya Bhatt,06:50,,,"06:50,",,Present,
17,23,,Bhavin Vyas,06:42,,,"06:42,",,Present,
18,24,,Manisha Jain,06:59,,,"06:59,",,Present,
19,27,,Parbatsingh Rathore,06:53,,,"06:53,",,Present,
20,28,,Manish Chauhan,06:55,,,"06:55,",,Present,
21,29,,Mamta Chauhan,07:01,,,"07:01,",,Present,
22,30,,Parth Dholakiya,07:01,,,"07:01,",,Present,
23,32,,Sulochna Bhoklay,07:01,,,"07:01,",,Present,
24,35,,Ravi Kariya,06:53,,,"06:53,",,Present,
25,36,,Harshad Vaja,06:54,,,"06:54,",,Present,
26,37,,Khushbu Jogia,,,,,,Present,
27,38,,Vallabh Vadhiya,06:59,,,"06:59,",,Present,
28,39,,Mahavir Zala,07:02,,,"07:02,",,Present,
29,40,,Rakesh Joshi,06:46,,,"06:46,",,Present,
30,42,,Dharmesh Parekh,06:54,,,"06:54,",,Present,
31,43,,Paras Turakhia,06:53,,,"06:53,",,Present,
32,44,,Sunny Sachaniya,06:53,,,"06:53,",,Present,
33,45,,Shreeya Nimavat,06:53,,,"06:53,",,Present,
34,47,,Dhiren Pandya,06:30,,,"06:30,",,Present,
35,48,,Grace Shiju Daniel,06:45,,,"06:45,",,Present,
36,49,,Milind Kaluskar,07:04,,,"07:04,",,Present,
37,50,,Mahendra Vyas,06:56,,,"06:56,",,Present,
38,52,,Lajja Narain,06:52,,,"06:52,",,Present,
39,53,,Sushma Soni,,,,,,Present,
40,55,,Shilpa Vala,,,,,,Present,
41,58,,Lina Vasani,07:02,,,"07:02,",,Present,
42,59,,Manisha Virvani,06:45,,,"06:45,",,Present,
43,61,,Namrata Hadvani,07:05,,,"07:05,",,Present,
44,62,,Zankruti Swadia,06:54,,,"06:54,",,Present,
45,64,,Gayatri Ghadiyali,06:52,,,"06:52,",,Present,
46,66,,Bhavesh Vekaria,07:03,,,"07:03,",,Present,
47,67,,Mitali Vithalani,,,,,,Not Present,
48,69,,Mayur Thoriya,06:52,,,"06:52,",,Present,
49,70,,Darshana Sheth,06:59,,,"06:59,",,Present,
50,71,,Sangita Chauhan,07:02,,,"07:02,",,Present,
51,72,,Devi Parmar,,,,,,Not Present,
,,,,,,,,,,
,,,,,,,,,,
