Employee Punch Monitor,,,,,,,,,,
,,,,,,,,,,
Company:,,Default,,,,,,Printed On : Sep 04 2014 07:29,,
,,,,,,,,,,
,,,,,,,,,,
Date,,,04-Sep-2014,,,,,,,
Department,,,Default,,,,,,,
SNo.,Emp Code ,,Name,Last Punch,,Direction,Punch Records,,Status,
1,1,,Mr. Jilesh Vishrolia,07:08,,,"07:08,",,Present,
2,2,,Ms. Gayatri Moras,,,,,,Not Present,
3,3,,Ms. Suajata Singh,07:10,,,"07:10,",,Present,
4,4,,Mr. Raja Mishra,07:08,,,"07:08,",,Present,
5,5,,Mr. Anurag Singh,07:07,,,"07:07,",,Present,
6,6,,Ms. Anita Sharma,06:48,,,"06:48,",,Present,
7,7,,Mr. Sebastian Joy,07:10,,,"07:10,",,Present,
8,9,,Mr. Canute Miranda,06:52,,,"06:52,",,Present,
9,10,,Ms. Dhara Dadhaniya,,,,,,Not Present,
10,11,,Ms. Asha Trivedi,06:57,,,"06:57,",,Present,
11,12,,Ms. Vandana Abhichandani,07:10,,,"07:10,",,Present,
12,13,,Mr. Piyush Malani,,,,,,Not Present,
13,14,,Ms. Anshu Singh,06:43,,,"06:43,",,Present,
14,15,,Ms. Dimple Dabhi,07:10,,,"07:10,",,Present,
15,16,,Ms. Kusum Parmar,06:51,,,"06:51,",,Present,
16,17,,Ms. Seema Joshi,06:41,,,"06:41,",,Present,
17,19,,Mr. Nilesh Gohel,07:10,,,"07:10,",,Present,
18,20,,Ms. Brenda Gonsalves,07:11,,,"07:11,",,Present,
19,22,,Ms. Divya Bhatt,07:05,,,"07:05,",,Present,
20,23,,Mr. Bhavin Vyas,06:51,,,"06:51,",,Present,
21,24,,Ms. Manisha Jain,07:02,,,"07:02,",,Present,
22,27,,Mr. Parbatsingh Rathore,07:09,,,"07:09,",,Present,
23,28,,Mr. Manish Chauhan,06:57,,,"06:57,",,Present,
24,29,,Ms. Mamta Chauhan,07:10,,,"07:10,",,Present,
25,30,,Mr. Parth Dholakiya,06:55,,,"06:55,",,Present,
26,32,,Ms. Sulochana Bhoklay,07:10,,,"07:10,",,Present,
27,33,,Mr. Raviprakash Mishra,07:01,,,"07:01,",,Present,
28,34,,Mr. James Dsouza,06:57,,,"06:57,",,Present,
29,35,,Mr. Ravi Kariya,06:56,,,"06:56,",,Present,
30,36,,Mr. Harshad Vaja,06:55,,,"06:55,",,Present,
31,37,,Ms. Khushbu Jogia,,,,,,Present,
32,38,,Mr. Vallabh Vadhiya,06:57,,,"06:57,",,Present,
33,39,,Mr. Mahavirsinh Zala,06:54,,,"06:54,",,Present,
34,40,,Mr. Rakesh Joshi,06:54,,,"06:54,",,Present,
35,41,,Ms. Ekta Parmar,06:45,,,"06:45,",,Present,
36,42,,Mr. Dharmesh Parekh,06:54,,,"06:54,",,Present,
37,43,,Mr. Paras Turakhiya,06:57,,,"06:57,",,Present,
38,44,,Mr. Sunny Sanchniya,07:05,,,"07:05,",,Present,
39,45,,Ms. Shreeya Nimavat,06:51,,,"06:51,",,Present,
40,46,,Ms. Kinjal Buddhadev,06:57,,,"06:57,",,Present,
41,47,,Mr. Dhiren Pandya,06:41,,,"06:41,",,Present,
42,48,,Ms. Grace Siju Daniel,06:57,,,"06:57,",,Present,
43,49,,Mr. Milind Kaluskar,07:08,,,"07:08,",,Present,
44,50,,Mr. Mahendra Vyas,07:01,,,"07:01,",,Present,
45,51,,Ms. Rekha Vaghela,06:48,,,"06:48,",,Present,
46,52,,Ms. Lajja Narain,06:43,,,"06:43,",,Present,
47,53,,Ms. Sushma Soni,,,,,,Present,
48,54,,Ms. Indumati Toppo,,,,,,Present,
49,55,,Ms. Shilpa Vala,,,,,,Present,
,,,,,,,,,,
,,,,,,,,,,
