Employee Punch Monitor,,,,,,,,,,
,,,,,,,,,,
Company:,,Default,,,,,,Printed On : Aug 23 2014 07:19,,
,,,,,,,,,,
,,,,,,,,,,
Date,,,23-Aug-2014,,,,,,,
Department,,,Default,,,,,,,
SNo.,Emp Code ,,Name,Last Punch,,Direction,Punch Records,,Status,
1,1,,Mr. Jilesh Vishrolia,06:57,,,"06:57,",,Present,
2,2,,Ms. Gayatri Moras,06:43,,,"06:43,",,Present,
3,3,,Ms. Suajata Singh,06:50,,,"06:50,",,Present,
4,4,,Mr. Raja Mishra,06:51,,,"06:51,",,Present,
5,5,,Mr. Anurag Singh,06:50,,,"06:50,",,Present,
6,6,,Ms. Anita Sharma,06:43,,,"06:43,",,Present,
7,7,,Mr. Sebastian Joy,06:49,,,"06:49,",,Present,
8,9,,Mr. Canute Miranda,06:41,,,"06:41,",,Present,
9,10,,Ms. Dhara Dadhaniya,06:41,,,"06:41,",,Present,
10,11,,Ms. Asha Trivedi,,,,,,Not Present,
11,12,,Ms. Vandana Abhichandani,06:50,,,"06:50,",,Present,
12,13,,Mr. Piyush Malani,06:52,,,"06:52,",,Present,
13,14,,Ms. Anshu Singh,06:45,,,"06:45,",,Present,
14,15,,Ms. Dimple Dabhi,06:49,,,"06:49,",,Present,
15,16,,Ms. Kusum Parmar,06:49,,,"06:49,",,Present,
16,17,,Ms. Seema Joshi,06:54,,,"06:54,",,Present,
17,19,,Mr. Nilesh Gohel,07:02,,,"07:02,",,Present,
18,20,,Ms. Brenda Gonsalves,06:49,,,"06:49,",,Present,
19,22,,Ms. Divya Bhatt,07:03,,,"07:03,",,Present,
20,23,,Mr. Bhavin Vyas,06:41,,,"06:41,",,Present,
21,24,,Ms. Manisha Jain,06:44,,,"06:44,",,Present,
22,27,,Mr. Parbatsingh Rathore,06:51,,,"06:51,",,Present,
23,28,,Mr. Manish Chauhan,06:52,,,"06:52,",,Present,
24,29,,Ms. Mamta Chauhan,06:49,,,"06:49,",,Present,
25,30,,Mr. Parth Dholakiya,06:53,,,"06:53,",,Present,
26,32,,Ms. Sulochana Bhoklay,06:48,,,"06:48,",,Present,
27,33,,Mr. Raviprakash Mishra,06:59,,,"06:59,",,Present,
28,34,,Mr. James Dsouza,06:50,,,"06:50,",,Present,
29,35,,Mr. Ravi Kariya,06:57,,,"06:57,",,Present,
30,36,,Mr. Harshad Vaja,06:53,,,"06:53,",,Present,
31,37,,Ms. Khushbu Jogia,,,,,,Present,
32,38,,Mr. Vallabh Vadhiya,06:57,,,"06:57,",,Present,
33,39,,Mr. Mahavirsinh Zala,07:18,,,"07:18,",,Present,
34,40,,Mr. Rakesh Joshi,06:54,,,"06:54,",,Present,
35,41,,Ms. Ekta Parmar,06:57,,,"06:57,",,Present,
36,42,,Mr. Dharmesh Parekh,06:53,,,"06:53,",,Present,
37,43,,Mr. Paras Turakhiya,06:43,,,"06:43,",,Present,
38,44,,Mr. Sunny Sanchniya,06:58,,,"06:58,",,Present,
39,45,,Ms. Shreeya Nimavat,06:49,,,"06:49,",,Present,
40,46,,Ms. Kinjal Buddhadev,06:50,,,"06:50,",,Present,
41,47,,Mr. Dhiren Pandya,06:33,,,"06:33,",,Present,
42,48,,Ms. Grace Siju Daniel,06:50,,,"06:50,",,Present,
43,49,,Mr. Milind Kaluskar,07:02,,,"07:02,",,Present,
44,50,,Mr. Mahendra Vyas,06:45,,,"06:45,",,Present,
45,51,,Ms. Rekha Vaghela,06:43,,,"06:43,",,Present,
46,52,,Ms. Lajja Narain,06:45,,,"06:45,",,Present,
47,53,,Ms. Sushma Soni,,,,,,Present,
48,54,,Ms. Indumati Toppo,,,,,,Present,
49,55,,Ms. Shilpa Vala,,,,,,Present,
,,,,,,,,,,
,,,,,,,,,,
